{
  "districts": [{
    "shortname": "thiruvananthapuram",
    "fullname": "Thiruvananthapuram",
    "title": "Flag off",
    "dates": ["2015-01-28", "2015-01-29"],
    "imgattrib": "\"<a href=\"https://commons.wikimedia.org/wiki/File:Assembly11.jpg#mediaviewer/File:Assembly11.jpg\">Assembly11</a>\"by Original uploader was <a href=\"//en.wikipedia.org/wiki/User:Rajithmohan\" class=\"extiw\" title=\"en:User:Rajithmohan\">Rajithmohan</a> at <a class=\"external text\" href=\"http://en.wikipedia.org\">en.wikipedia</a> - Transferred from <a class=\"external text\" href=\"http://en.wikipedia.org\">en.wikipedia</a>;  transfer was stated to be made by <a href=\"//commons.wikimedia.org/wiki/User:Aadri\" title=\"User:Aadri\">User:Aadri</a>. Licensed under <a title=\"Creative Commons Attribution-Share Alike 3.0\" href=\"http://creativecommons.org/licenses/by-sa/3.0/\"> CC BY-SA 3.0</a> via <a href=\"//commons.wikimedia.org/wiki/\">Wikimedia Commons</a>.",
    "organizers": ["anish", "rejah","sugeesh"]
  },
   {
    "shortname": "kollam",
    "fullname": "Kollam",
    "title": "Designanadu",
    "dates": ["2015-01-30", "2015-01-31"],
    "organizers": ["kannan", "dominic", "daphin"],
    "imgattrib": "\"<a href=\"https://commons.wikimedia.org/wiki/File:%E0%B4%A4%E0%B4%99%E0%B5%8D%E0%B4%95%E0%B4%B6%E0%B5%8D%E0%B4%B6%E0%B5%87%E0%B4%B0%E0%B4%BF_%E0%B4%AA%E0%B5%81%E0%B4%B2%E0%B4%BF%E0%B4%AE%E0%B5%81%E0%B4%9F%E0%B5%8D%E0%B4%9F%E0%B4%BF%E0%B5%BD_%E0%B4%A8%E0%B4%BF%E0%B4%A8%E0%B5%8D%E0%B4%A8%E0%B5%8A%E0%B4%B0%E0%B5%81_%E0%B4%A6%E0%B5%83%E0%B4%B6%E0%B5%8D%E0%B4%AF%E0%B4%82.JPG#mediaviewer/File:%E0%B4%A4%E0%B4%99%E0%B5%8D%E0%B4%95%E0%B4%B6%E0%B5%8D%E0%B4%B6%E0%B5%87%E0%B4%B0%E0%B4%BF_%E0%B4%AA%E0%B5%81%E0%B4%B2%E0%B4%BF%E0%B4%AE%E0%B5%81%E0%B4%9F%E0%B5%8D%E0%B4%9F%E0%B4%BF%E0%B5%BD_%E0%B4%A8%E0%B4%BF%E0%B4%A8%E0%B5%8D%E0%B4%A8%E0%B5%8A%E0%B4%B0%E0%B5%81_%E0%B4%A6%E0%B5%83%E0%B4%B6%E0%B5%8D%E0%B4%AF%E0%B4%82.JPG\">തങ്കശ്ശേരി പുലിമുട്ടിൽ നിന്നൊരു ദൃശ്യം</a>\"    by <a rel=\"nofollow\" class=\"external text\" href=\"http://flickr.com/people/72025004@N00\">പ്രതീഷ് പ്രകാശ്</a> -    originally posted to <a href=\"//commons.wikimedia.org/wiki/Flickr\" title=\"Flickr\" class=\"mw-redirect\">Flickr</a> as    <a rel=\"nofollow\" class=\"external text\" href=\"http://flickr.com/photos/72025004@N00/3130142610\">No Man's Land</a>.    Licensed under <a title=\"Creative Commons Attribution-Share Alike 2.0\" href=\"http://creativecommons.org/licenses/by-sa/2.0\">    CC BY-SA 2.0</a> via <a href=\"//commons.wikimedia.org/wiki/\">Wikimedia Commons</a>."
  }, {
    "shortname": "pathanamthitta",
    "fullname": "Pathanamthitta",
    "title": "Adobe of God",
    "dates": ["2015-02-01", "2015-02-02"],
    "organizers": ["prasobh", "anoop"],
    "imgattrib": "\"<a href=\"https://en.wikipedia.org/wiki/File:Kolam_Thullall.jpg#mediaviewer/File:Kolam_Thullall.jpg\">Kolam Thullall</a>\".Licensed under <a title=\"Creative Commons Attribution-ShareAlike 3.0\" href=\"http://creativecommons.org/licenses/by-sa/3.0/\">CC BY - SA 3.0 < /a> via <a href=\"//en.wikipedia.org/wiki/\">Wikipedia</a>."
  }, {
    "shortname": "alappuzha",
    "fullname": "Alappuzha",
    "title": "Venice of the East",
    "dates": ["2015-02-03", "2015-02-04"],
    "organizers": ["akhilan", "manojkumar"],
    "imgattrib": "\"<a href=\"https://commons.wikimedia.org/wiki/File:Paddy_fields_of_Kuttanad.jpg#mediaviewer/File:Paddy_fields_of_Kuttanad.jpg\">Paddy fields of Kuttanad</a>\" by <a href=\"//commons.wikimedia.org/wiki/User:Tojo667\" title=\"User:Tojo667\">Tojo667</a> - <span class=\"int-own-work\">Own work</span>.    Licensed under <a title=\"Creative Commons Attribution-Share Alike 3.0\" href=\"http://creativecommons.org/licenses/by-sa/3.0\">CC BY-SA 3.0</a>    via <a href=\"//commons.wikimedia.org/wiki/\">Wikimedia Commons</a>."
  }, {
    "shortname": "kottayam",
    "fullname": "Kottayam",
    "title": "The letter city",
    "dates": ["2015-02-07", "2015-02-08"],
    "organizers": ["tony"],
    "imgattrib": "\"<a href=\"https://commons.wikimedia.org/wiki/File:Kottayam_Cheria_Pally01.jpg#mediaviewer/File:Kottayam_Cheria_Pally01.jpg\">Kottayam Cheria Pally01</a>\".    Licensed under Public Domain via <a href=\"//commons.wikimedia.org/wiki/\">Wikimedia Commons</a>."
  }, {
    "shortname": "idukki",
    "fullname": "Idukki",
    "title": "",
    "organizers": ["jijo", "hrishi"],
    "dates": ["2015-02-09", "2015-02-10"],
    "imgattrib": "\"<a href=\"https://commons.wikimedia.org/wiki/File:Idukki_scenic.JPG#mediaviewer/File:Idukki_scenic.JPG\">Idukki scenic</a>\" by <a href=\"//commons.wikimedia.org/w/index.php?title=User:Aml_jhn&amp;action=edit&amp;redlink=1\" class=\"new\" title=\"User:Aml jhn (page does not exist)\">Aml jhn</a> - <span class=\"int-own-work\">Own work</span>. Licensed under <a title=\"Creative Commons Attribution-Share Alike 3.0\" href=\"http://creativecommons.org/licenses/by-sa/3.0\">CC BY-SA 3.0</a>via <a href=\"//commons.wikimedia.org/wiki/\">Wikimedia Commons</a>."
  }, {
    "shortname": "ernakulam",
    "fullname": "Ernakulam",
    "title": "Rishinagakulam",
    "dates": ["2015-02-11", "2015-02-12"],
    "organizers": ["sivahari","abid"],
    "imgattrib": "\"<a href=\"https://commons.wikimedia.org/wiki/File:Marine_Drive_Chinese_Net_DSW.jpg#mediaviewer/File:Marine_Drive_Chinese_Net_DSW.jpg\">Marine Drive Chinese Net DSW</a>\"    by <a href=\"//en.wikipedia.org/wiki/User:Mydreamsparrow\" class=\"extiw\" title=\"w:User:Mydreamsparrow\">    Augustus Binu</a>/ <a rel=\"nofollow\" class=\"external text\" href=\"http://www.dreamsparrow.net\">www.dreamsparrow.net</a>/    <a rel=\"nofollow\" class=\"external text\" href=\"https://www.facebook.com/DreamSparrowPhotography\">facebook</a> - <span class=\"int-own-work\">Own work</span>.    Licensed under <a title=\"Creative Commons Attribution-Share Alike 3.0\" href=\"http://creativecommons.org/licenses/by-sa/3.0\">CC BY-SA 3.0</a>    via <a href=\"//commons.wikimedia.org/wiki/\">Wikimedia Commons</a>."
  }, {
    "shortname": "thrissur",
    "fullname": "Thrissur",
    "title": "Cultural capital",
    "dates": ["2015-02-13", "2015-02-14"],
    "organizers": ["manoj"],
    "imgattrib": "\"<a href=\"https://commons.wikimedia.org/wiki/File:ThrissurPooram-Kuda.jpg#mediaviewer/File:ThrissurPooram-Kuda.jpg\">ThrissurPooram-Kuda</a>\".Licensed under <a title=\"Creative Commons Attribution-Share Alike 3.0\" href=\"http://creativecommons.org/licenses/by-sa/3.0/\">CC BY-SA 3.0</a>    via <a href=\"//commons.wikimedia.org/wiki/\">Wikimedia Commons</a>."
  }, {
    "shortname": "palakkad",
    "fullname": "Palakkad",
    "title": "Land of Palmyra trees",
    "dates": ["2015-02-15", "2015-02-16","2015-02-17"],
    "organizers": ["ark","alfas"],
    "imgattrib": "\"<a href=\"https://commons.wikimedia.org/wiki/File:Palakkad_Fort.JPG#mediaviewer/File:Palakkad_Fort.JPG\">Palakkad Fort</a>\"    by <a href=\"//commons.wikimedia.org/wiki/User:Me_haridas\" title=\"User:Me haridas\">Me haridas</a> - <span class=\"int-own-work\">Own work</span>.    Licensed under <a title=\"GNU Free Documentation License\" href=\"http://www.gnu.org/copyleft/fdl.html\">GFDL</a>via <a href=\"//commons.wikimedia.org/wiki/\">Wikimedia Commons</a>."
  }, {
    "shortname": "delhi",
    "fullname": "Delhi",
    "state": "delhi",
    "title": "Rajdhani",
    "dates": ["2015-02-18"],
    "organizers": ["vikas","parin"],
    "imgattrib": "\"<a href=\"https://commons.wikimedia.org/wiki/File:Indiagatelightening.jpg#mediaviewer/File:Indiagatelightening.jpg\">Indiagatelightening</a>\" by <a rel=\"nofollow\" class=\"external text\" href=\"http://www.flickr.com/people/68323241@N00/\">just clicked</a> - <a rel=\"nofollow\" class=\"external free\" href=\"http://www.flickr.com/photos/68323241@N00/503211753/sizes/o/\">http://www.flickr.com/photos/68323241@N00/503211753/sizes/o/</a>. Licensed under <a title=\"Creative Commons Attribution-Share Alike 2.0\" href=\"http://creativecommons.org/licenses/by-sa/2.0\">CC BY-SA 2.0</a> via <a href=\"//commons.wikimedia.org/wiki/\">Wikimedia Commons</a>."
    }, {
    "shortname": "malappuram",
    "fullname": "Malappuram",
    "dates": ["2015-02-19", "2015-02-20","2015-02-21"],
    "organizers": ["manu", "hassainar", "shamlik"],
    "imgattrib": "\"<a href=\"https://commons.wikimedia.org/wiki/File:Kadalundi_Bird_Sanctuary.jpg#mediaviewer/File:Kadalundi_Bird_Sanctuary.jpg\">Kadalundi Bird Sanctuary</a>\"    by <a rel=\"nofollow\" class=\"external text\" href=\"http://flickr.com/photos/23619903@N00\">Dhruvaraj S</a> -  originally posted to <a href=\"//commons.wikimedia.org/wiki/Flickr\" title=\"Flickr\" class=\"mw-redirect\">    Flickr</a> as <a rel=\"nofollow\" class=\"external text\" href=\"http://flickr.com/photos/23619903@N00/2220909138\">Kadalundi Bird Sanctuary</a>.    Licensed under <a title=\"Creative Commons Attribution 2.0\" href=\"http://creativecommons.org/licenses/by/2.0\">CC BY 2.0</a>    via <a href=\"//commons.wikimedia.org/wiki/\">Wikimedia Commons</a>."
  }, {
    "shortname": "kozhikode",
    "fullname": "Kozhikode",
    "title": "",
    "dates": ["2015-02-22", "2015-02-23"],
    "organizers": ["jaisen", "adarsh"],
    "imgattrib": "\"<a href=\"https://commons.wikimedia.org/wiki/File:A_View_of_Calicut_Beach.jpg#mediaviewer/File:A_View_of_Calicut_Beach.jpg\">A View of Calicut Beach</a>\"    by <a href=\"//commons.wikimedia.org/w/index.php?title=User:Bidhunkrishna&amp;action=edit&amp;redlink=1\" class=\"new\" title=\"User:Bidhunkrishna (page does not exist)\">Bidhunkrishna</a> - <span class=\"int-own-work\">Own work</span>.    Licensed under <a title=\"Creative Commons Attribution-Share Alike 3.0\" href=\"http://creativecommons.org/licenses/by-sa/3.0\">CC BY-SA 3.0</a>    via <a href=\"//commons.wikimedia.org/wiki/\">Wikimedia Commons</a>.  "
  }, {
    "shortname": "wayanad",
    "fullname": "Wayanad",
    "dates": ["2015-02-24", "2015-02-25"],
    "organizers": ["shyam","sreejith"],
    "imgattrib": "\"<a href=\"https://commons.wikimedia.org/wiki/File:Tea_plantation_2.jpg#mediaviewer/File:Tea_plantation_2.jpg\">Tea plantation 2</a>\"    by <a href=\"//en.wikipedia.org/wiki/User:Kmkutty\" class=\"extiw\" title=\"wikipedia:User:Kmkutty\">    Kmkutty</a> at <a href=\"//en.wikipedia.org/wiki/\" class=\"extiw\" title=\"wikipedia:\">English Wikipedia</a> -    Transferred from&nbsp;<span class=\"plainlinks\"><a class=\"external text\" href=\"http://en.wikipedia.org\">en.wikipedia</a></span> to Commons.    Licensed under <a title=\"Creative Commons Attribution-Share Alike 3.0\" href=\"http://creativecommons.org/licenses/by-sa/3.0\">CC BY-SA 3.0</a>    via <a href=\"//commons.wikimedia.org/wiki/\">Wikimedia Commons</a>."
  }, {
    "shortname": "mysuru",
    "fullname": "Mysuru",
    "title": "Namma Mysuru",
    "state": "karnataka",
    "dates": ["2015-02-26", "2015-02-27"],
    "organizers": ["jibu"],
    "imgattrib": "\"<a href=\"https://commons.wikimedia.org/wiki/File:Mysore_palace_illuminated.jpg#mediaviewer/File:Mysore_palace_illuminated.jpg\">    Mysore palace illuminated</a>\" by <a href=\"//en.wikipedia.org/wiki/User:Muhammad_Mahdi_Karim\" class=\"extiw\" title=\"w:User:Muhammad Mahdi Karim\">Muhammad Mahdi Karim</a> (<a rel=\"nofollow\" class=\"external text\" href=\"http://www.micro2macro.net/\">www.micro2macro.net</a>) <a rel=\"nofollow\" class=\"external text\" href=\"http://facebook.com/micro2macro\">Facebook</a>    <a rel=\"nofollow\" class=\"external text\" href=\"https://www.youtube.com/user/m2mHD\">Youtube</a> - <span class=\"int-own-work\">Own work</span>.    Licensed under <a title=\"GNU Free Documentation License 1.2\" href=\"http://www.gnu.org/licenses/old-licenses/fdl-1.2.html\">GFDL 1.2</a>    via <a href=\"//commons.wikimedia.org/wiki/\">Wikimedia Commons</a>."
  }, {
    "shortname": "trichy",
    "fullname": "Tiruchirappalli",
    "title": "Tiruchi",
    "state": "tamilnadu",
    "dates": ["2015-02-28"],
    "imgattrib": "\"<a href=\"https://commons.wikimedia.org/wiki/File:Trichy_and_Srirangam.jpg#mediaviewer/File:Trichy_and_Srirangam.jpg\">Trichy and Srirangam</a>\" by Appaji - <a rel=\"nofollow\" class=\"external free\" href=\"http://www.flickr.com/photos/appaji/242272012/sizes/l/\">http://www.flickr.com/photos/appaji/242272012/sizes/l/</a>. Licensed under <a title=\"Creative Commons Attribution 2.0\" href=\"http://creativecommons.org/licenses/by/2.0\">CC BY 2.0</a> via <a href=\"//commons.wikimedia.org/wiki/\">Wikimedia Commons</a>."
  }, {
    "shortname": "bengaluru",
    "fullname": "Bengaluru",
    "state": "karnataka",
    "title": "Silicon Valley of India",
    "dates": ["2015-03-02", "2015-03-03"],
    "organizers": ["renuka"],
    "imgattrib": "\"<a href=\"https://commons.wikimedia.org/wiki/File:Bangalore_Airport.jpg#mediaviewer/File:Bangalore_Airport.jpg\">Bangalore Airport</a>\"    by <a rel=\"nofollow\" class=\"external text\" href=\"http://flickr.com/photos/7181724@N06\">Utkarsh Jha</a> -    originally posted to <a href=\"//commons.wikimedia.org/wiki/Flickr\" title=\"Flickr\" class=\"mw-redirect\">Flickr</a> as    <a rel=\"nofollow\" class=\"external text\" href=\"http://flickr.com/photos/7181724@N06/2520877557\">The New BIAL Airport</a>.    Licensed under <a title=\"Creative Commons Attribution-Share Alike 2.0\" href=\"http://creativecommons.org/licenses/by-sa/2.0\">CC BY-SA 2.0</a>    via <a href=\"//commons.wikimedia.org/wiki/\">Wikimedia Commons</a>."
  }, {
    "shortname": "kasaragod",
    "fullname": "Kasaragod",
    "title": "Sapthabhasha Sangamabhoomi",
    "dates": ["2015-03-04", "2015-03-05"],
    "organizers": ["sooraj"],
    "imgattrib": "\"<a href=\"https://commons.wikimedia.org/wiki/File:Bakel_ratnu.JPG#mediaviewer/File:Bakel_ratnu.JPG\">Bakel ratnu</a>\"    by <a href=\"//commons.wikimedia.org/w/index.php?title=User:Galoiserdos&amp;action=edit&amp;redlink=1\" class=\"new\" title=\"User:Galoiserdos (page does not exist)\">    Galoiserdos</a> Rethnakaran Pulikkoonattu - <span class=\"int-own-work\">Own work</span>.    Licensed under <a title=\"Creative Commons Attribution 3.0\" href=\"http://creativecommons.org/licenses/by/3.0\">CC BY 3.0</a>    via <a href=\"//commons.wikimedia.org/wiki/\">Wikimedia Commons</a>."
  }, {
    "shortname": "kannur",
    "fullname": "Kannur",
    "title": "Land of looms and lores",
    "dates": ["2015-03-06", "2015-03-07"],
    "organizers": ["mahesh"],
    "imgattrib": "\"<a href=\"https://commons.wikimedia.org/wiki/File:Click_on_15-03-2013.jpg#mediaviewer/File:Click_on_15-03-2013.jpg\">Click on 15-03-2013</a>\"    by <a href=\"//commons.wikimedia.org/w/index.php?title=User:Akuaku123&amp;action=edit&amp;redlink=1\" class=\"new\" title=\"User:Akuaku123 (page does not exist)\">Akuaku123</a> - <span class=\"int-own-work\">Own work</span>.    Licensed under <a title=\"Creative Commons Attribution-Share Alike 3.0\" href=\"http://creativecommons.org/licenses/by-sa/3.0\">CC BY-SA 3.0</a>    via <a href=\"//commons.wikimedia.org/wiki/\">Wikimedia Commons</a>."
  },{
    "shortname": "maharashtra",
    "fullname": "Maharashtra",
    "state": "maharashtra",
    "organizers": ["krishnakant"],
    "imgattrib": "\"<a href=\"https://commons.wikimedia.org/wiki/File:Mumbai_Train_Station.jpg#mediaviewer/File:Mumbai_Train_Station.jpg\">Mumbai Train Station</a>\". Licensed under <a title=\"Creative Commons Attribution-Share Alike 2.0\" href=\"http://creativecommons.org/licenses/by-sa/2.0\">CC BY-SA 2.0</a> via <a href=\"//commons.wikimedia.org/wiki/\">Wikimedia Commons</a>."
  }
  ],
  "members": [{
    "type": "supporter",
    "shortname": "praveen",
    "fullname": "Praveen Arimbrathodiyil",
    "title": "Pirate Captain",
    "description": "Praveen is the founder of this campaign",
    "diasporaid": "praveen",
    "diasporapod": "poddery.com"
  }, {
    "type": "supporter",
    "shortname": "balasankar",
    "fullname": "Balasankar C",
    "title": "Podmin",
    "description": "Balasankar is an admin of the diaspora pod, poddery.com and a Free Software enthusiast",
    "diasporaid": "bsc",
    "diasporapod": "poddery.com"
  }, {
    "type": "supporter",
    "shortname": "anish",
    "fullname": "Anish A",
    "title": "Supporter",
    "description": "Anish is a diaspora* user supporter of Diaspora Yatra",
    "diasporaid": "anish",
    "diasporapod": "joindiaspora.com"
  }, {
    "type": "supporter",
    "shortname": "manu",
    "fullname": "Manu Krishnan TV",
    "title": "Supporter",
    "description": "Manu Krishnan is a diaspora* user supporter of Diaspora Yatra",
    "diasporaid": "tvmanukrishnan",
    "diasporapod": "joindiaspora.com"
  }, {
    "type": "supporter",
    "shortname": "akshay",
    "fullname": "Akshay S Dinesh",
    "title": "Web maker",
    "description": "Akshay helps in developing this page you're viewing",
    "diasporaid": "asdofindia",
    "diasporapod": "joindiaspora.com",
    "phone": "8123148720"
  },{
    "type": "organizer",
    "shortname": "rejah",
    "fullname": "Rejah Rehim",
    "title": "Organizer",
    "description": "Diaspora enthusiast",
    "diasporaid": "rejah",
    "diasporapod": "poddery.com"
},{
    "type": "organizer",
    "shortname": "kannan",
    "fullname": "Kannan Shanmugam",
    "title": "Organizer",
    "description": "Diaspora enthusiast",
    "diasporaid": "kannan",
    "diasporapod": "diasp.org"
  },{
    "type": "organizer",
    "shortname": "dominic",
    "fullname": "Dominic Geevarghese",
    "title": "Organizer",
    "description": "Diaspora enthusiast",
    "diasporaid": "dominicpg",
    "diasporapod": "joindiaspora.com"
  },{
    "type": "organizer",
    "shortname": "akhilan",
    "fullname": "Akhilan",
    "title": "Organizer",
    "description": "Diaspora enthusiast",
    "diasporaid": "akhilan",
    "diasporapod": "diasp.org"
  },{
    "type": "organizer",
    "shortname": "tony",
    "fullname": "Tony mash",
    "title": "Organizer",
    "description": "Diaspora enthusiast",
    "diasporaid": "tonynirappathu",
    "diasporapod": "diasp.org"
  },{
    "type": "organizer",
    "shortname": "sivahari",
    "fullname": "Sivahari Nandakumar",
    "title": "Organizer",
    "description": "Diaspora enthusiast",
    "diasporaid": "sivahari",
    "diasporapod": "joindiaspora.com"
  },{
    "type": "organizer",
    "shortname": "manoj",
    "fullname": "Manoj K Mohan",
    "title": "Organizer",
    "description": "Diaspora enthusiast",
    "diasporaid": "manojkmohan",
    "diasporapod": "joindiaspora.com"
  },{
    "type": "organizer",
    "shortname": "ark",
    "fullname": "Ark Arjun",
    "title": "Organizer",
    "description": "Diaspora enthusiast",
    "diasporaid": "arkarjun",
    "diasporapod": "poddery.com"
  },{
    "type": "organizer",
    "shortname": "hassainar",
    "fullname": "Hassainar Mankada",
    "title": "Organizer",
    "description": "Diaspora enthusiast",
    "diasporaid": "hassainarmankada",
    "diasporapod": "diasp.org",
    "noimg": true
  },{
    "type": "organizer",
    "shortname": "jaisen",
    "fullname": "Jaisen Nedumpala",
    "title": "Organizer",
    "description": "Diaspora enthusiast",
    "diasporaid": "jaisuvyas",
    "diasporapod": "diasp.org",
    "phone": "9645082877"
  },{
    "type": "organizer",
    "shortname": "adarsh",
    "fullname": "VK Adarsh",
    "title": "Organizer",
    "description": "Diaspora enthusiast",
    "diasporaid": "vkadarsh",
    "diasporapod": "diasp.org",
    "phone": "9895232774"
  },{
    "type": "organizer",
    "shortname": "shyam",
    "fullname": "Shyam Balakrishnan",
    "title": "Organizer",
    "description": "Diaspora enthusiast",
    "diasporaid": "shyam_balakrishnan",
    "diasporapod": "poddery.com"
  },{
    "type": "organizer",
    "shortname": "jibu",
    "fullname": "Jibu Jacob",
    "title": "Organizer",
    "description": "Diaspora enthusiast",
    "diasporaid": "jacjibu",
    "diasporapod": "austriapod.at"
  },{
    "type": "organizer",
    "shortname": "renuka",
    "fullname": "Renuka Prasad",
    "title": "Organizer",
    "description": "Diaspora enthusiast",
    "diasporaid": "",
    "diasporapod": "",
    "noimg": true
  },{
    "type": "organizer",
    "shortname": "sooraj",
    "fullname": "Sooraj Kenoth",
    "title": "Organizer",
    "description": "Diaspora enthusiast",
    "diasporaid": "soorajkenoth",
    "diasporapod": "joindiaspora.com"
  },{
    "type": "organizer",
    "shortname": "mahesh",
    "fullname": "Mahesh Mangalat",
    "title": "Organizer",
    "description": "Diaspora enthusiast",
    "diasporaid": "maheshmangalat",
    "diasporapod": "diasp.org"
  },{
    "type": "organizer",
    "shortname": "abid",
    "fullname": "Abid Aboobaker",
    "title": "Organizer",
    "description": "Diaspora enthusiast",
    "diasporaid": "ekuttan",
    "diasporapod": "poddery.com"
  },{
    "type": "organizer",
    "shortname": "praveens",
    "fullname": "Praveen Sridhar",
    "title": "Organizer",
    "description": "Diaspora enthusiast",
    "diasporaid": "psbots",
    "diasporapod": "poddery.com",
    "noimg": true
  },{
    "type": "organizer",
    "shortname": "sugeesh",
    "fullname": "Sugeesh",
    "title": "Organizer",
    "description": "Diaspora enthusiast",
    "diasporaid": "sugeesh",
    "diasporapod": "diasp.org"
  },{
    "type": "organizer",
    "shortname": "shamlik",
    "fullname": "Shamlik",
    "title": "Organizer",
    "description": "Diaspora enthusiast",
    "diasporaid": "shamlik",
    "diasporapod": "diaspora.com.ar",
    "noimg": true
  },{
    "type": "organizer",
    "shortname": "parin",
    "fullname": "Parin",
    "title": "Organizer",
    "description": "Diaspora enthusiast",
    "diasporaid": "frdmaniac",
    "diasporapod": "joindiaspora.com"
  },{
    "type": "organizer",
    "shortname": "vikas",
    "fullname": "Vikas",
    "title": "Organizer",
    "description": "Diaspora enthusiast",
    "diasporaid": "vik",
    "diasporapod": "diasp.in",
    "noimg": true
  },{
    "type": "organizer",
    "shortname": "krishnakant",
    "fullname": "Krishnakant Mane",
    "title": "Organizer",
    "description": "Diaspora enthusiast",
    "diasporaid": "kkhacks",
    "diasporapod": "poddery.com",
    "noimg": true
  },{
    "type": "organizer",
    "shortname": "sreejith",
    "fullname": "Sreejith Koiloth",
    "title": "Organizer",
    "description": "Diaspora enthusiast",
    "diasporaid": "sreejithkoiloth",
    "diasporapod": "poddery.com"
  },{
    "type": "organizer",
    "shortname": "jijo",
    "fullname": "Jijo mash",
    "title": "Organizer",
    "description": "Diaspora enthusiast",
    "diasporaid": "",
    "diasporapod": "",
    "noimg": true
  },{
    "type": "organizer",
    "shortname": "alfas",
    "fullname": "Alfas",
    "title": "Organizer",
    "description": "Diaspora enthusiast",
    "diasporaid": "alfasst",
    "diasporapod": "diasp.org",
    "noimg": true
  },{
    "type": "organizer",
    "shortname": "hrishi",
    "fullname": "Hrishi",
    "title": "Organizer",
    "description": "Diaspora enthusiast",
    "diasporaid": "mehrishi",
    "diasporapod": "joindiaspora.com"
  },{
    "type": "organizer",
    "shortname": "anand",
    "fullname": "Anand Jagadeesh",
    "title": "Publicity Manager",
    "description": "Anand is from Fisat Free Software Cell",
    "diasporaid": "ajn",
    "diasporapod": "poddery.com"
  },{
    "type": "organizer",
    "shortname": "daphin",
    "fullname": "Daphin Rose",
    "title": "Organizer",
    "description": "Diaspora enthusiast",
    "diasporaid": "daphin",
    "diasporapod": "diasp.in",
    "noimg": true
  },{
    "type": "organizer",
    "shortname": "prasobh",
    "fullname": "Prasobh Krishnan",
    "title": "Organizer",
    "description": "Diaspora enthusiast",
    "diasporaid": "",
    "diasporapod": "",
    "noimg": true
  },{
    "type": "organizer",
    "shortname": "anoop",
    "fullname": "Anoop John",
    "title": "Organizer",
    "description": "Diaspora enthusiast",
    "diasporaid": "",
    "diasporapod": "",
    "noimg": true
  },{
    "type": "organizer",
    "shortname": "manojkumar",
    "fullname": "Manoj Kumar KM",
    "title": "Organizer",
    "description": "Diaspora enthusiast",
    "diasporaid": "",
    "diasporapod": "",
    "noimg": true
  }
  ]
}
